name: 'Customer - Bookings'
description: |-

  APIs for managing customer bookings, reservations, and payments.
endpoints:
  -
    custom: []
    httpMethods:
      - POST
    uri: api/customer/bookings/reserve
    metadata:
      custom: []
      groupName: 'Customer - Bookings'
      groupDescription: |-

        APIs for managing customer bookings, reservations, and payments.
      subgroup: ''
      subgroupDescription: ''
      title: 'Create a temporary reservation'
      description: |-
        Reserve a time slot temporarily for 10 minutes. This holds the slot while the customer completes payment.
        The reservation will automatically expire after 10 minutes if payment is not confirmed.
      authenticated: true
      deprecated: false
    headers:
      Authorization: 'Bearer {YOUR_AUTH_TOKEN}'
      Content-Type: application/json
      Accept: application/json
    urlParameters: []
    cleanUrlParameters: []
    queryParameters: []
    cleanQueryParameters: []
    bodyParameters:
      offering_time_slot_id:
        custom: []
        name: offering_time_slot_id
        description: 'The ID of the time slot to reserve.'
        required: true
        example: 1
        type: integer
        enumValues: []
        exampleWasSpecified: true
        nullable: false
        deprecated: false
      customer_notes:
        custom: []
        name: customer_notes
        description: 'Optional notes from the customer.'
        required: false
        example: 'Please confirm via email'
        type: string
        enumValues: []
        exampleWasSpecified: true
        nullable: true
        deprecated: false
    cleanBodyParameters:
      offering_time_slot_id: 1
      customer_notes: 'Please confirm via email'
    fileParameters: []
    responses:
      -
        custom: []
        status: 201
        content: |-
          {
            "code": 201,
            "message": "success",
            "data": {
              "reservation_id": "9c8e7f6a-5d4c-3b2a-1e0f-9d8c7b6a5e4f",
              "offering_time_slot_id": 1,
              "offering_id": 1,
              "total_price": "100.00",
              "expires_at": "2025-12-15T10:45:00Z",
              "ttl_seconds": 600
            }
          }
        headers: []
        description: ''
    responseFields: []
    auth:
      - headers
      - Authorization
      - 'Bearer 6g43cv8PD1aE5beadkZfhV6'
    controller: null
    method: null
    route: null
  -
    custom: []
    httpMethods:
      - POST
    uri: api/customer/bookings/confirm-payment
    metadata:
      custom: []
      groupName: 'Customer - Bookings'
      groupDescription: |-

        APIs for managing customer bookings, reservations, and payments.
      subgroup: ''
      subgroupDescription: ''
      title: 'Confirm payment and finalize booking'
      description: |-
        After completing payment (currently mocked), call this endpoint to finalize the booking.
        This converts the temporary reservation into a permanent booking.
      authenticated: true
      deprecated: false
    headers:
      Authorization: 'Bearer {YOUR_AUTH_TOKEN}'
      Content-Type: application/json
      Accept: application/json
    urlParameters: []
    cleanUrlParameters: []
    queryParameters: []
    cleanQueryParameters: []
    bodyParameters:
      reservation_id:
        custom: []
        name: reservation_id
        description: 'The reservation ID from the reserve endpoint.'
        required: true
        example: 9c8e7f6a-5d4c-3b2a-1e0f-9d8c7b6a5e4f
        type: string
        enumValues: []
        exampleWasSpecified: true
        nullable: false
        deprecated: false
      payment_id:
        custom: []
        name: payment_id
        description: 'The payment transaction ID.'
        required: true
        example: pay_mock_123456
        type: string
        enumValues: []
        exampleWasSpecified: true
        nullable: false
        deprecated: false
      customer_notes:
        custom: []
        name: customer_notes
        description: 'Optional additional notes from the customer.'
        required: false
        example: 'Arriving 15 minutes early'
        type: string
        enumValues: []
        exampleWasSpecified: true
        nullable: false
        deprecated: false
    cleanBodyParameters:
      reservation_id: 9c8e7f6a-5d4c-3b2a-1e0f-9d8c7b6a5e4f
      payment_id: pay_mock_123456
      customer_notes: 'Arriving 15 minutes early'
    fileParameters: []
    responses:
      -
        custom: []
        status: 200
        content: |-
          {
            "code": 200,
            "message": "success",
            "data": {
              "message": "Payment confirmed. Booking is being processed."
            }
          }
        headers: []
        description: ''
    responseFields: []
    auth:
      - headers
      - Authorization
      - 'Bearer 6g43cv8PD1aE5beadkZfhV6'
    controller: null
    method: null
    route: null
  -
    custom: []
    httpMethods:
      - GET
    uri: api/customer/bookings
    metadata:
      custom: []
      groupName: 'Customer - Bookings'
      groupDescription: |-

        APIs for managing customer bookings, reservations, and payments.
      subgroup: ''
      subgroupDescription: ''
      title: "List customer's bookings"
      description: 'Retrieve all bookings for the authenticated customer with optional filtering and pagination.'
      authenticated: true
      deprecated: false
    headers:
      Authorization: 'Bearer {YOUR_AUTH_TOKEN}'
      Content-Type: application/json
      Accept: application/json
    urlParameters: []
    cleanUrlParameters: []
    queryParameters:
      offering_id:
        custom: []
        name: offering_id
        description: 'Filter by offering ID.'
        required: false
        example: 1
        type: integer
        enumValues: []
        exampleWasSpecified: true
        nullable: false
        deprecated: false
      status:
        custom: []
        name: status
        description: 'Filter by booking status (confirmed, cancelled, completed, no_show).'
        required: false
        example: confirmed
        type: string
        enumValues: []
        exampleWasSpecified: true
        nullable: false
        deprecated: false
      payment_status:
        custom: []
        name: payment_status
        description: 'Filter by payment status (pending, paid, refunded).'
        required: false
        example: paid
        type: string
        enumValues: []
        exampleWasSpecified: true
        nullable: false
        deprecated: false
      date_from:
        custom: []
        name: date_from
        description: 'Filter bookings from this date (Y-m-d format).'
        required: false
        example: '2025-01-01'
        type: string
        enumValues: []
        exampleWasSpecified: true
        nullable: false
        deprecated: false
      date_to:
        custom: []
        name: date_to
        description: 'Filter bookings until this date (Y-m-d format).'
        required: false
        example: '2025-12-31'
        type: string
        enumValues: []
        exampleWasSpecified: true
        nullable: false
        deprecated: false
      sort_by:
        custom: []
        name: sort_by
        description: 'Sort by field (created_at, confirmed_at, total_price, status).'
        required: false
        example: created_at
        type: string
        enumValues: []
        exampleWasSpecified: true
        nullable: false
        deprecated: false
      sort_direction:
        custom: []
        name: sort_direction
        description: 'Sort direction (asc, desc).'
        required: false
        example: desc
        type: string
        enumValues: []
        exampleWasSpecified: true
        nullable: false
        deprecated: false
      page:
        custom: []
        name: page
        description: 'Page number for pagination.'
        required: false
        example: 1
        type: integer
        enumValues: []
        exampleWasSpecified: true
        nullable: false
        deprecated: false
      page_size:
        custom: []
        name: page_size
        description: 'Number of items per page.'
        required: false
        example: 15
        type: integer
        enumValues: []
        exampleWasSpecified: true
        nullable: false
        deprecated: false
    cleanQueryParameters:
      offering_id: 1
      status: confirmed
      payment_status: paid
      date_from: '2025-01-01'
      date_to: '2025-12-31'
      sort_by: created_at
      sort_direction: desc
      page: 1
      page_size: 15
    bodyParameters: []
    cleanBodyParameters: []
    fileParameters: []
    responses:
      -
        custom: []
        status: 200
        content: |-
          {
            "code": 200,
            "message": "success",
            "data": {
              "data": [],
              "current_page": 1,
              "per_page": 15,
              "total": 50,
              "last_page": 4
            }
          }
        headers: []
        description: ''
    responseFields: []
    auth:
      - headers
      - Authorization
      - 'Bearer 6g43cv8PD1aE5beadkZfhV6'
    controller: null
    method: null
    route: null
  -
    custom: []
    httpMethods:
      - GET
    uri: 'api/customer/bookings/{id}'
    metadata:
      custom: []
      groupName: 'Customer - Bookings'
      groupDescription: |-

        APIs for managing customer bookings, reservations, and payments.
      subgroup: ''
      subgroupDescription: ''
      title: 'Get a specific booking'
      description: 'Retrieve details of a single booking by ID.'
      authenticated: true
      deprecated: false
    headers:
      Authorization: 'Bearer {YOUR_AUTH_TOKEN}'
      Content-Type: application/json
      Accept: application/json
    urlParameters:
      id:
        custom: []
        name: id
        description: 'The booking ID.'
        required: true
        example: 1
        type: integer
        enumValues: []
        exampleWasSpecified: true
        nullable: false
        deprecated: false
    cleanUrlParameters:
      id: 1
    queryParameters: []
    cleanQueryParameters: []
    bodyParameters: []
    cleanBodyParameters: []
    fileParameters: []
    responses:
      -
        custom: []
        status: 200
        content: |-
          {
            "code": 200,
            "message": "success",
            "data": {
              "id": 1,
              "booking_reference": "BOOK-20251215-ABC123",
              "status": "confirmed",
              "payment_status": "paid",
              "total_price": "100.00",
              "offering": {},
              "time_slot": {}
            }
          }
        headers: []
        description: ''
    responseFields: []
    auth:
      - headers
      - Authorization
      - 'Bearer 6g43cv8PD1aE5beadkZfhV6'
    controller: null
    method: null
    route: null
  -
    custom: []
    httpMethods:
      - DELETE
    uri: 'api/customer/bookings/{id}'
    metadata:
      custom: []
      groupName: 'Customer - Bookings'
      groupDescription: |-

        APIs for managing customer bookings, reservations, and payments.
      subgroup: ''
      subgroupDescription: ''
      title: 'Cancel a booking'
      description: 'Cancel an existing booking and process refund. The time slot capacity will be freed up.'
      authenticated: true
      deprecated: false
    headers:
      Authorization: 'Bearer {YOUR_AUTH_TOKEN}'
      Content-Type: application/json
      Accept: application/json
    urlParameters:
      id:
        custom: []
        name: id
        description: 'The booking ID to cancel.'
        required: true
        example: 1
        type: integer
        enumValues: []
        exampleWasSpecified: true
        nullable: false
        deprecated: false
    cleanUrlParameters:
      id: 1
    queryParameters: []
    cleanQueryParameters: []
    bodyParameters:
      cancellation_reason:
        custom: []
        name: cancellation_reason
        description: 'Optional reason for cancellation.'
        required: false
        example: 'Change of plans'
        type: string
        enumValues: []
        exampleWasSpecified: true
        nullable: true
        deprecated: false
    cleanBodyParameters:
      cancellation_reason: 'Change of plans'
    fileParameters: []
    responses:
      -
        custom: []
        status: 200
        content: |-
          {
            "code": 200,
            "message": "success",
            "data": {
              "message": "Booking cancelled successfully"
            }
          }
        headers: []
        description: ''
    responseFields: []
    auth:
      - headers
      - Authorization
      - 'Bearer 6g43cv8PD1aE5beadkZfhV6'
    controller: null
    method: null
    route: null
