## Autogenerated by Scribe. DO NOT MODIFY.

name: 'Agency - Bookings'
description: |-

  APIs for agencies to manage bookings for their offerings.
endpoints:
  -
    custom: []
    httpMethods:
      - GET
    uri: api/agency/bookings
    metadata:
      custom: []
      groupName: 'Agency - Bookings'
      groupDescription: |-

        APIs for agencies to manage bookings for their offerings.
      subgroup: ''
      subgroupDescription: ''
      title: "List agency's bookings"
      description: "Retrieve all bookings for the agency's offerings with optional filtering and pagination."
      authenticated: true
      deprecated: false
    headers:
      Authorization: 'Bearer {YOUR_AUTH_TOKEN}'
      Content-Type: application/json
      Accept: application/json
    urlParameters: []
    cleanUrlParameters: []
    queryParameters:
      offering_id:
        custom: []
        name: offering_id
        description: 'Filter by offering ID.'
        required: false
        example: 1
        type: integer
        enumValues: []
        exampleWasSpecified: true
        nullable: false
        deprecated: false
      status:
        custom: []
        name: status
        description: 'Filter by booking status (confirmed, cancelled, completed, no_show).'
        required: false
        example: confirmed
        type: string
        enumValues: []
        exampleWasSpecified: true
        nullable: false
        deprecated: false
      payment_status:
        custom: []
        name: payment_status
        description: 'Filter by payment status (pending, paid, refunded).'
        required: false
        example: paid
        type: string
        enumValues: []
        exampleWasSpecified: true
        nullable: false
        deprecated: false
      date_from:
        custom: []
        name: date_from
        description: 'Filter bookings from this date (Y-m-d format).'
        required: false
        example: '2025-01-01'
        type: string
        enumValues: []
        exampleWasSpecified: true
        nullable: false
        deprecated: false
      date_to:
        custom: []
        name: date_to
        description: 'Filter bookings until this date (Y-m-d format).'
        required: false
        example: '2025-12-31'
        type: string
        enumValues: []
        exampleWasSpecified: true
        nullable: false
        deprecated: false
      sort_by:
        custom: []
        name: sort_by
        description: 'Sort by field (created_at, confirmed_at, total_price, status).'
        required: false
        example: created_at
        type: string
        enumValues: []
        exampleWasSpecified: true
        nullable: false
        deprecated: false
      sort_direction:
        custom: []
        name: sort_direction
        description: 'Sort direction (asc, desc).'
        required: false
        example: desc
        type: string
        enumValues: []
        exampleWasSpecified: true
        nullable: false
        deprecated: false
      page:
        custom: []
        name: page
        description: 'Page number for pagination.'
        required: false
        example: 1
        type: integer
        enumValues: []
        exampleWasSpecified: true
        nullable: false
        deprecated: false
      page_size:
        custom: []
        name: page_size
        description: 'Number of items per page.'
        required: false
        example: 15
        type: integer
        enumValues: []
        exampleWasSpecified: true
        nullable: false
        deprecated: false
    cleanQueryParameters:
      offering_id: 1
      status: confirmed
      payment_status: paid
      date_from: '2025-01-01'
      date_to: '2025-12-31'
      sort_by: created_at
      sort_direction: desc
      page: 1
      page_size: 15
    bodyParameters: []
    cleanBodyParameters: []
    fileParameters: []
    responses:
      -
        custom: []
        status: 200
        content: |-
          {
            "code": 200,
            "message": "success",
            "data": {
              "data": [],
              "current_page": 1,
              "per_page": 15,
              "total": 50,
              "last_page": 4
            }
          }
        headers: []
        description: ''
    responseFields: []
    auth:
      - headers
      - Authorization
      - 'Bearer 6g43cv8PD1aE5beadkZfhV6'
    controller: null
    method: null
    route: null
  -
    custom: []
    httpMethods:
      - GET
    uri: 'api/agency/bookings/{id}'
    metadata:
      custom: []
      groupName: 'Agency - Bookings'
      groupDescription: |-

        APIs for agencies to manage bookings for their offerings.
      subgroup: ''
      subgroupDescription: ''
      title: 'Get a specific booking'
      description: "Retrieve details of a booking for one of the agency's offerings."
      authenticated: true
      deprecated: false
    headers:
      Authorization: 'Bearer {YOUR_AUTH_TOKEN}'
      Content-Type: application/json
      Accept: application/json
    urlParameters:
      id:
        custom: []
        name: id
        description: 'The booking ID.'
        required: true
        example: 1
        type: integer
        enumValues: []
        exampleWasSpecified: true
        nullable: false
        deprecated: false
    cleanUrlParameters:
      id: 1
    queryParameters: []
    cleanQueryParameters: []
    bodyParameters: []
    cleanBodyParameters: []
    fileParameters: []
    responses:
      -
        custom: []
        status: 200
        content: |-
          {
            "code": 200,
            "message": "success",
            "data": {
              "id": 1,
              "booking_reference": "BOOK-20251215-ABC123",
              "status": "confirmed",
              "payment_status": "paid",
              "user": {},
              "offering": {},
              "time_slot": {}
            }
          }
        headers: []
        description: ''
    responseFields: []
    auth:
      - headers
      - Authorization
      - 'Bearer 6g43cv8PD1aE5beadkZfhV6'
    controller: null
    method: null
    route: null
  -
    custom: []
    httpMethods:
      - DELETE
    uri: 'api/agency/bookings/{id}'
    metadata:
      custom: []
      groupName: 'Agency - Bookings'
      groupDescription: |-

        APIs for agencies to manage bookings for their offerings.
      subgroup: ''
      subgroupDescription: ''
      title: 'Cancel a booking'
      description: 'Agency can cancel bookings for their offerings. The time slot capacity will be freed up and payment refunded.'
      authenticated: true
      deprecated: false
    headers:
      Authorization: 'Bearer {YOUR_AUTH_TOKEN}'
      Content-Type: application/json
      Accept: application/json
    urlParameters:
      id:
        custom: []
        name: id
        description: 'The booking ID to cancel.'
        required: true
        example: 1
        type: integer
        enumValues: []
        exampleWasSpecified: true
        nullable: false
        deprecated: false
    cleanUrlParameters:
      id: 1
    queryParameters: []
    cleanQueryParameters: []
    bodyParameters:
      cancellation_reason:
        custom: []
        name: cancellation_reason
        description: 'Optional reason for cancellation.'
        required: false
        example: 'Offering no longer available'
        type: string
        enumValues: []
        exampleWasSpecified: true
        nullable: true
        deprecated: false
    cleanBodyParameters:
      cancellation_reason: 'Offering no longer available'
    fileParameters: []
    responses:
      -
        custom: []
        status: 200
        content: |-
          {
            "code": 200,
            "message": "success",
            "data": {
              "message": "Booking cancelled successfully"
            }
          }
        headers: []
        description: ''
    responseFields: []
    auth:
      - headers
      - Authorization
      - 'Bearer 6g43cv8PD1aE5beadkZfhV6'
    controller: null
    method: null
    route: null
